%YAML 1.1
%TAG !u! tag:unity3d.com,2011:
--- !u!114 &11400000
MonoBehaviour:
  m_ObjectHideFlags: 0
  m_PrefabParentObject: {fileID: 0}
  m_PrefabInternal: {fileID: 0}
  m_GameObject: {fileID: 0}
  m_Enabled: 1
  m_EditorHideFlags: 0
  m_Script: {fileID: 11500000, guid: f1b3b4b945939a54ea0b23d3396115fb, type: 3}
  m_Name: New SkeletonData
  m_EditorClassIdentifier: 
  atlasAssets:
  - {fileID: 11400000, guid: cd491b4648b857e45821d3f8470c09be, type: 2}
  skeletonJSON: {fileID: 4900000, guid: 9aa74da1f2cb50e409dfdaa6332fdb40, type: 3}
  scale: 1
  fromAnimation: []
  toAnimation: []
  duration: []
  defaultMix: 0
