%YAML 1.1
%TAG !u! tag:unity3d.com,2011:
--- !u!114 &11400000
MonoBehaviour:
  m_ObjectHideFlags: 0
  m_PrefabParentObject: {fileID: 0}
  m_PrefabInternal: {fileID: 0}
  m_GameObject: {fileID: 0}
  m_Enabled: 1
  m_EditorHideFlags: 0
  m_Script: {fileID: 11500000, guid: a6b194f808b1af6499c93410e504af42, type: 3}
  m_Name: skeleton_Atlas
  m_EditorClassIdentifier: 
  atlasFile: {fileID: 4900000, guid: 94b45c207c84d564993b7bed2612be1a, type: 3}
  materials:
  - {fileID: 2100000, guid: 5783034e92fb1a341b4812ffd1456dea, type: 2}
  - {fileID: 2100000, guid: 0af31ddf23758d742a229ed1a92fef91, type: 2}
  - {fileID: 2100000, guid: a5646d6a00175764196ef2895862706d, type: 2}
