%YAML 1.1
%TAG !u! tag:unity3d.com,2011:
--- !u!74 &7400000
AnimationClip:
  m_ObjectHideFlags: 0
  m_PrefabParentObject: {fileID: 0}
  m_PrefabInternal: {fileID: 0}
  m_Name: idle_animation
  serializedVersion: 4
  m_AnimationType: 2
  m_Compressed: 0
  m_UseHighQualityCurve: 1
  m_RotationCurves: []
  m_CompressedRotationCurves: []
  m_PositionCurves: []
  m_ScaleCurves: []
  m_FloatCurves: []
  m_PPtrCurves:
  - curve:
    - time: 0
      value: {fileID: 21300000, guid: 6892a9a88384c41f2adfbdce9e2080ba, type: 3}
    - time: .0333333351
      value: {fileID: 21300000, guid: 767f698d225024de38532b59a0ba4b60, type: 3}
    - time: .0666666701
      value: {fileID: 21300000, guid: 20c2fff3eaafc41dd85b4a56bda78dae, type: 3}
    - time: .100000001
      value: {fileID: 21300000, guid: 81c31b857218b423e91e88b1ddb07a05, type: 3}
    - time: .13333334
      value: {fileID: 21300000, guid: 226f1aa49c8b24d3c910dfc2b4297b95, type: 3}
    - time: .166666672
      value: {fileID: 21300000, guid: 20b07fb1b981b480ca27e24fb429d279, type: 3}
    - time: .200000003
      value: {fileID: 21300000, guid: 4fcb1014575004e9bbaffcdfae3af860, type: 3}
    - time: .233333334
      value: {fileID: 21300000, guid: f05dd4412b62a45429d676ce7891c0c4, type: 3}
    - time: .266666681
      value: {fileID: 21300000, guid: 6e67889d712f44fd0970678e9823adf3, type: 3}
    - time: .300000012
      value: {fileID: 21300000, guid: e5c5064c4b3054700b8d07a24a8e581e, type: 3}
    - time: .333333343
      value: {fileID: 21300000, guid: 6545d230b74184a06acfe71f5de6f447, type: 3}
    - time: .366666675
      value: {fileID: 21300000, guid: e1333ec5afd624176ab8f3553b527b55, type: 3}
    - time: .400000006
      value: {fileID: 21300000, guid: d53416107efdc464cb517dc7626b5a3b, type: 3}
    - time: .433333337
      value: {fileID: 21300000, guid: c6af151736634440cb97bcef5e2560e9, type: 3}
    - time: .466666669
      value: {fileID: 21300000, guid: da88e9ca579d44aa4a385befe23d4a92, type: 3}
    - time: .5
      value: {fileID: 21300000, guid: 4b416bc9f42b143ff9cace940f6902e1, type: 3}
    - time: .533333361
      value: {fileID: 21300000, guid: 1b83035d2965b49dd8e5ae0cf374a05d, type: 3}
    - time: .566666663
      value: {fileID: 21300000, guid: bb46dafadbe1b4f068330624c5ee27e0, type: 3}
    - time: .600000024
      value: {fileID: 21300000, guid: ad1f0499526224f4a9eb7fb7556a31a2, type: 3}
    - time: .633333325
      value: {fileID: 21300000, guid: b767dae37336c49089f28c9c07b180b1, type: 3}
    attribute: m_Sprite
    path: 
    classID: 212
    script: {fileID: 0}
  m_SampleRate: 30
  m_WrapMode: 0
  m_Bounds:
    m_Center: {x: 0, y: 0, z: 0}
    m_Extent: {x: 0, y: 0, z: 0}
  m_ClipBindingConstant:
    genericBindings:
    - path: 0
      attribute: 0
      script: {fileID: 0}
      classID: 212
      customType: 23
      isPPtrCurve: 1
    pptrCurveMapping:
    - {fileID: 21300000, guid: 6892a9a88384c41f2adfbdce9e2080ba, type: 3}
    - {fileID: 21300000, guid: 767f698d225024de38532b59a0ba4b60, type: 3}
    - {fileID: 21300000, guid: 20c2fff3eaafc41dd85b4a56bda78dae, type: 3}
    - {fileID: 21300000, guid: 81c31b857218b423e91e88b1ddb07a05, type: 3}
    - {fileID: 21300000, guid: 226f1aa49c8b24d3c910dfc2b4297b95, type: 3}
    - {fileID: 21300000, guid: 20b07fb1b981b480ca27e24fb429d279, type: 3}
    - {fileID: 21300000, guid: 4fcb1014575004e9bbaffcdfae3af860, type: 3}
    - {fileID: 21300000, guid: f05dd4412b62a45429d676ce7891c0c4, type: 3}
    - {fileID: 21300000, guid: 6e67889d712f44fd0970678e9823adf3, type: 3}
    - {fileID: 21300000, guid: e5c5064c4b3054700b8d07a24a8e581e, type: 3}
    - {fileID: 21300000, guid: 6545d230b74184a06acfe71f5de6f447, type: 3}
    - {fileID: 21300000, guid: e1333ec5afd624176ab8f3553b527b55, type: 3}
    - {fileID: 21300000, guid: d53416107efdc464cb517dc7626b5a3b, type: 3}
    - {fileID: 21300000, guid: c6af151736634440cb97bcef5e2560e9, type: 3}
    - {fileID: 21300000, guid: da88e9ca579d44aa4a385befe23d4a92, type: 3}
    - {fileID: 21300000, guid: 4b416bc9f42b143ff9cace940f6902e1, type: 3}
    - {fileID: 21300000, guid: 1b83035d2965b49dd8e5ae0cf374a05d, type: 3}
    - {fileID: 21300000, guid: bb46dafadbe1b4f068330624c5ee27e0, type: 3}
    - {fileID: 21300000, guid: ad1f0499526224f4a9eb7fb7556a31a2, type: 3}
    - {fileID: 21300000, guid: b767dae37336c49089f28c9c07b180b1, type: 3}
  m_AnimationClipSettings:
    serializedVersion: 2
    m_StartTime: 0
    m_StopTime: .666666687
    m_OrientationOffsetY: 0
    m_Level: 0
    m_CycleOffset: 0
    m_LoopTime: 1
    m_LoopBlend: 0
    m_LoopBlendOrientation: 0
    m_LoopBlendPositionY: 0
    m_LoopBlendPositionXZ: 0
    m_KeepOriginalOrientation: 0
    m_KeepOriginalPositionY: 1
    m_KeepOriginalPositionXZ: 0
    m_HeightFromFeet: 0
    m_Mirror: 0
  m_EditorCurves: []
  m_EulerEditorCurves: []
  m_Events: []
