%YAML 1.1
%TAG !u! tag:unity3d.com,2011:
--- !u!74 &7400000
AnimationClip:
  m_ObjectHideFlags: 0
  m_PrefabParentObject: {fileID: 0}
  m_PrefabInternal: {fileID: 0}
  m_Name: closeDoor
  serializedVersion: 4
  m_AnimationType: 1
  m_Compressed: 0
  m_UseHighQualityCurve: 1
  m_RotationCurves:
  - curve:
      serializedVersion: 2
      m_Curve:
      - time: 0
        value: {x: 0, y: 0, z: -.707106829, w: .707106709}
        inSlope: {x: 0, y: 0, z: .0915634558, w: .0913667604}
        outSlope: {x: 0, y: 0, z: .0915634558, w: .0913667604}
        tangentMode: 57
      - time: .0166666675
        value: {x: 0, y: 0, z: -.705580771, w: .708629489}
        inSlope: {x: 0, y: 0, z: .167357311, w: .166048393}
        outSlope: {x: 0, y: 0, z: .167357311, w: .166048393}
        tangentMode: 0
      - time: .0333333351
        value: {x: 0, y: 0, z: -.701528251, w: .712641656}
        inSlope: {x: 0, y: 0, z: .315626234, w: .309669942}
        outSlope: {x: 0, y: 0, z: .315626234, w: .309669942}
        tangentMode: 0
      - time: .0500000045
        value: {x: 0, y: 0, z: -.695059896, w: .718951821}
        inSlope: {x: 0, y: 0, z: .457799435, w: .441205502}
        outSlope: {x: 0, y: 0, z: .457799435, w: .441205502}
        tangentMode: 0
      - time: .0666666701
        value: {x: 0, y: 0, z: -.68626827, w: .727348506}
        inSlope: {x: 0, y: 0, z: .594794214, w: .559569657}
        outSlope: {x: 0, y: 0, z: .594794214, w: .559569657}
        tangentMode: 0
      - time: .0833333358
        value: {x: 0, y: 0, z: -.675233424, w: .737604141}
        inSlope: {x: 0, y: 0, z: .727205932, w: .663916528}
        outSlope: {x: 0, y: 0, z: .727205932, w: .663916528}
        tangentMode: 57
      - time: .100000001
        value: {x: 0, y: 0, z: -.662028074, w: .749479055}
        inSlope: {x: 0, y: 0, z: .855306447, w: .753620327}
        outSlope: {x: 0, y: 0, z: .855306447, w: .753620327}
        tangentMode: 57
      - time: .116666667
        value: {x: 0, y: 0, z: -.646723211, w: .762724817}
        inSlope: {x: 0, y: 0, z: .979079485, w: .828264236}
        outSlope: {x: 0, y: 0, z: .979079485, w: .828264236}
        tangentMode: 0
      - time: .13333334
        value: {x: 0, y: 0, z: -.629392087, w: .777087867}
        inSlope: {x: 0, y: 0, z: 1.09825182, w: .887646556}
        outSlope: {x: 0, y: 0, z: 1.09825182, w: .887646556}
        tangentMode: 0
      - time: .150000006
        value: {x: 0, y: 0, z: -.610114813, w: .792313039}
        inSlope: {x: 0, y: 0, z: 1.21232104, w: .93176192}
        outSlope: {x: 0, y: 0, z: 1.21232104, w: .93176192}
        tangentMode: 0
      - time: .166666672
        value: {x: 0, y: 0, z: -.58898139, w: .808146596}
        inSlope: {x: 0, y: 0, z: 1.32059824, w: .960812032}
        outSlope: {x: 0, y: 0, z: 1.32059824, w: .960812032}
        tangentMode: 0
      - time: .183333337
        value: {x: 0, y: 0, z: -.566094875, w: .824340105}
        inSlope: {x: 0, y: 0, z: 1.42224503, w: .97521013}
        outSlope: {x: 0, y: 0, z: 1.42224503, w: .97521013}
        tangentMode: 0
      - time: .200000003
        value: {x: 0, y: 0, z: -.541573226, w: .840653598}
        inSlope: {x: 0, y: 0, z: 1.51631367, w: .975562394}
        outSlope: {x: 0, y: 0, z: 1.51631367, w: .975562394}
        tangentMode: 57
      - time: .216666669
        value: {x: 0, y: 0, z: -.51555109, w: .85685885}
        inSlope: {x: 0, y: 0, z: 1.60178137, w: .962671697}
        outSlope: {x: 0, y: 0, z: 1.60178137, w: .962671697}
        tangentMode: 0
      - time: .233333334
        value: {x: 0, y: 0, z: -.488180518, w: .872742653}
        inSlope: {x: 0, y: 0, z: 1.67760468, w: .937535822}
        outSlope: {x: 0, y: 0, z: 1.67760468, w: .937535822}
        tangentMode: 0
      - time: .25
        value: {x: 0, y: 0, z: -.459630936, w: .888110042}
        inSlope: {x: 0, y: 0, z: 1.7427485, w: .901316643}
        outSlope: {x: 0, y: 0, z: 1.7427485, w: .901316643}
        tangentMode: 0
      - time: .266666681
        value: {x: 0, y: 0, z: -.430088878, w: .902786553}
        inSlope: {x: 0, y: 0, z: 1.79621398, w: .855332494}
        outSlope: {x: 0, y: 0, z: 1.79621398, w: .855332494}
        tangentMode: 0
      - time: .283333361
        value: {x: 0, y: 0, z: -.399757087, w: .916621149}
        inSlope: {x: 0, y: 0, z: 1.83708632, w: .801039219}
        outSlope: {x: 0, y: 0, z: 1.83708632, w: .801039219}
        tangentMode: 34330992
      - time: .300000042
        value: {x: 0, y: 0, z: -.368852615, w: .929487884}
        inSlope: {x: 0, y: 0, z: 1.86454773, w: .739995837}
        outSlope: {x: 0, y: 0, z: 1.86454773, w: .739995837}
        tangentMode: 0
      - time: .316666722
        value: {x: 0, y: 0, z: -.337605447, w: .941287696}
        inSlope: {x: 0, y: 0, z: 1.87790418, w: .673840046}
        outSlope: {x: 0, y: 0, z: 1.87790418, w: .673840046}
        tangentMode: 0
      - time: .333333403
        value: {x: 0, y: 0, z: -.306255758, w: .951949239}
        inSlope: {x: 0, y: 0, z: 1.87659788, w: .60424757}
        outSlope: {x: 0, y: 0, z: 1.87659788, w: .60424757}
        tangentMode: 2
      - time: .350000083
        value: {x: 0, y: 0, z: -.27505213, w: .961429298}
        inSlope: {x: 0, y: 0, z: 1.86021411, w: .532902598}
        outSlope: {x: 0, y: 0, z: 1.86021411, w: .532902598}
        tangentMode: 0
      - time: .366666764
        value: {x: 0, y: 0, z: -.244248569, w: .969712675}
        inSlope: {x: 0, y: 0, z: 1.82849526, w: .46145758}
        outSlope: {x: 0, y: 0, z: 1.82849526, w: .46145758}
        tangentMode: 0
      - time: .383333445
        value: {x: 0, y: 0, z: -.214102238, w: .97681123}
        inSlope: {x: 0, y: 0, z: 1.78131795, w: .391502053}
        outSlope: {x: 0, y: 0, z: 1.78131795, w: .391502053}
        tangentMode: 1065353216
      - time: .400000125
        value: {x: 0, y: 0, z: -.184871256, w: .982762754}
        inSlope: {x: 0, y: 0, z: 1.71869195, w: .324514836}
        outSlope: {x: 0, y: 0, z: 1.71869195, w: .324514836}
        tangentMode: 0
      - time: .416666806
        value: {x: 0, y: 0, z: -.156812459, w: .9876284}
        inSlope: {x: 0, y: 0, z: 1.64074874, w: .261829883}
        outSlope: {x: 0, y: 0, z: 1.64074874, w: .261829883}
        tangentMode: 0
      - time: .433333486
        value: {x: 0, y: 0, z: -.130179584, w: .991490424}
        inSlope: {x: 0, y: 0, z: 1.54770732, w: .204609454}
        outSlope: {x: 0, y: 0, z: 1.54770732, w: .204609454}
        tangentMode: 1
      - time: .450000167
        value: {x: 0, y: 0, z: -.105222173, w: .994448721}
        inSlope: {x: 0, y: 0, z: 1.43986106, w: .153801322}
        outSlope: {x: 0, y: 0, z: 1.43986106, w: .153801322}
        tangentMode: 0
      - time: .466666847
        value: {x: 0, y: 0, z: -.0821841732, w: .996617138}
        inSlope: {x: 0, y: 0, z: 1.31755614, w: .110113531}
        outSlope: {x: 0, y: 0, z: 1.31755614, w: .110113531}
        tangentMode: 0
      - time: .483333528
        value: {x: 0, y: 0, z: -.0613035969, w: .998119175}
        inSlope: {x: 0, y: 0, z: 1.18114495, w: .0739788935}
        outSlope: {x: 0, y: 0, z: 1.18114495, w: .0739788935}
        tangentMode: 0
      - time: .500000179
        value: {x: 0, y: 0, z: -.0428126752, w: .999083102}
        inSlope: {x: 0, y: 0, z: 1.03097653, w: .0455385894}
        outSlope: {x: 0, y: 0, z: 1.03097653, w: .0455385894}
        tangentMode: 0
      - time: .51666683
        value: {x: 0, y: 0, z: -.0269377474, w: .999637127}
        inSlope: {x: 0, y: 0, z: .867366195, w: .0246083979}
        outSlope: {x: 0, y: 0, z: .867366195, w: .0246083979}
        tangentMode: 2139095040
      - time: .53333348
        value: {x: 0, y: 0, z: -.0139004979, w: .999903381}
        inSlope: {x: 0, y: 0, z: .714397669, w: .0107395751}
        outSlope: {x: 0, y: 0, z: .714397669, w: .0107395751}
        tangentMode: 2139095040
      - time: .550000131
        value: {x: 0, y: 0, z: -.00312451576, w: .999995112}
        inSlope: {x: 0, y: 0, z: .602018952, w: .00232815952}
        outSlope: {x: 0, y: 0, z: .602018952, w: .00232815952}
        tangentMode: 57
      - time: .566666782
        value: {x: 0, y: 0, z: .0061667813, w: .999980986}
        inSlope: {x: 0, y: 0, z: .515419126, w: -.00281632226}
        outSlope: {x: 0, y: 0, z: .515419126, w: -.00281632226}
        tangentMode: 1065353216
      - time: .583333433
        value: {x: 0, y: 0, z: .0140561042, w: .999901235}
        inSlope: {x: 0, y: 0, z: .433799565, w: -.00581145845}
        outSlope: {x: 0, y: 0, z: .433799565, w: -.00581145845}
        tangentMode: 0
      - time: .600000083
        value: {x: 0, y: 0, z: .0206267536, w: .999787271}
        inSlope: {x: 0, y: 0, z: .35718739, w: -.00714898761}
        outSlope: {x: 0, y: 0, z: .35718739, w: -.00714898761}
        tangentMode: 0
      - time: .616666734
        value: {x: 0, y: 0, z: .0259623397, w: .999662936}
        inSlope: {x: 0, y: 0, z: .285596132, w: -.0072526997}
        outSlope: {x: 0, y: 0, z: .285596132, w: -.0072526997}
        tangentMode: 0
      - time: .633333385
        value: {x: 0, y: 0, z: .0301466156, w: .999545515}
        inSlope: {x: 0, y: 0, z: .219030797, w: -.00648916373}
        outSlope: {x: 0, y: 0, z: .219030797, w: -.00648916373}
        tangentMode: 0
      - time: .650000036
        value: {x: 0, y: 0, z: .0332633592, w: .99944663}
        inSlope: {x: 0, y: 0, z: .157490015, w: -.00516415108}
        outSlope: {x: 0, y: 0, z: .157490015, w: -.00516415108}
        tangentMode: 1008981770
      - time: .666666687
        value: {x: 0, y: 0, z: .0353962779, w: .999373376}
        inSlope: {x: 0, y: 0, z: .100970179, w: -.00353157846}
        outSlope: {x: 0, y: 0, z: .100970179, w: -.00353157846}
        tangentMode: 0
      - time: .683333337
        value: {x: 0, y: 0, z: .0366290286, w: .999328911}
        inSlope: {x: 0, y: 0, z: .0494662374, w: -.00179350551}
        outSlope: {x: 0, y: 0, z: .0494662374, w: -.00179350551}
        tangentMode: 0
      - time: .699999988
        value: {x: 0, y: 0, z: .037045151, w: .999313593}
        inSlope: {x: 0, y: 0, z: .00297300797, w: -.000109076616}
        outSlope: {x: 0, y: 0, z: .00297300797, w: -.000109076616}
        tangentMode: 1077936128
      - time: .716666639
        value: {x: 0, y: 0, z: .0367281288, w: .999325275}
        inSlope: {x: 0, y: 0, z: -.038513653, w: .00140369078}
        outSlope: {x: 0, y: 0, z: -.038513653, w: .00140369078}
        tangentMode: 65536
      - time: .73333329
        value: {x: 0, y: 0, z: .0357613638, w: .999360383}
        inSlope: {x: 0, y: 0, z: -.0749965385, w: .00266254204}
        outSlope: {x: 0, y: 0, z: -.0749965385, w: .00266254204}
        tangentMode: 0
      - time: .74999994
        value: {x: 0, y: 0, z: .0342282467, w: .999414027}
        inSlope: {x: 0, y: 0, z: -.106476977, w: .00362098543}
        outSlope: {x: 0, y: 0, z: -.106476977, w: .00362098543}
        tangentMode: 0
      - time: .766666591
        value: {x: 0, y: 0, z: .0322121345, w: .999481082}
        inSlope: {x: 0, y: 0, z: -.132955715, w: .00425935164}
        outSlope: {x: 0, y: 0, z: -.132955715, w: .00425935164}
        tangentMode: 2
      - time: .783333242
        value: {x: 0, y: 0, z: .0297963936, w: .999556005}
        inSlope: {x: 0, y: 0, z: -.154431731, w: .00457764138}
        outSlope: {x: 0, y: 0, z: -.154431731, w: .00457764138}
        tangentMode: 1115465744
      - time: .799999893
        value: {x: 0, y: 0, z: .0270644147, w: .99963367}
        inSlope: {x: 0, y: 0, z: -.170903206, w: .0046062516}
        outSlope: {x: 0, y: 0, z: -.170903206, w: .0046062516}
        tangentMode: 0
      - time: .816666543
        value: {x: 0, y: 0, z: .0240996256, w: .999709547}
        inSlope: {x: 0, y: 0, z: -.182369649, w: .00438273372}
        outSlope: {x: 0, y: 0, z: -.182369649, w: .00438273372}
        tangentMode: 699858960
      - time: .833333194
        value: {x: 0, y: 0, z: .020985432, w: .999779761}
        inSlope: {x: 0, y: 0, z: -.188828021, w: .00395715609}
        outSlope: {x: 0, y: 0, z: -.188828021, w: .00395715609}
        tangentMode: 1821075353
      - time: .849999845
        value: {x: 0, y: 0, z: .017805364, w: .999841452}
        inSlope: {x: 0, y: 0, z: -.190275997, w: .00339031545}
        outSlope: {x: 0, y: 0, z: -.190275997, w: .00339031545}
        tangentMode: 176
      - time: .866666496
        value: {x: 0, y: 0, z: .0146429045, w: .999892771}
        inSlope: {x: 0, y: 0, z: -.186714441, w: .00274479669}
        outSlope: {x: 0, y: 0, z: -.186714441, w: .00274479669}
        tangentMode: 7008030
      - time: .883333147
        value: {x: 0, y: 0, z: .011581555, w: .999932945}
        inSlope: {x: 0, y: 0, z: -.178140536, w: .00207960792}
        outSlope: {x: 0, y: 0, z: -.178140536, w: .00207960792}
        tangentMode: 0
      - time: .899999797
        value: {x: 0, y: 0, z: .00870489236, w: .999962091}
        inSlope: {x: 0, y: 0, z: -.16455555, w: .00145375868}
        outSlope: {x: 0, y: 0, z: -.16455555, w: .00145375868}
        tangentMode: 1821075353
      - time: .916666448
        value: {x: 0, y: 0, z: .00609637564, w: .999981403}
        inSlope: {x: 0, y: 0, z: -.145958126, w: .000915528159}
        outSlope: {x: 0, y: 0, z: -.145958126, w: .000915528159}
        tangentMode: 176
      - time: .933333099
        value: {x: 0, y: 0, z: .00383962621, w: .999992609}
        inSlope: {x: 0, y: 0, z: -.122348674, w: .000497103203}
        outSlope: {x: 0, y: 0, z: -.122348674, w: .000497103203}
        tangentMode: 7008030
      - time: .94999975
        value: {x: 0, y: 0, z: .00201809034, w: .999997973}
        inSlope: {x: 0, y: 0, z: -.0937299654, w: .000214576925}
        outSlope: {x: 0, y: 0, z: -.0937299654, w: .000214576925}
        tangentMode: 0
      - time: .9666664
        value: {x: 0, y: 0, z: .000715297007, w: .999999762}
        inSlope: {x: 0, y: 0, z: -.0601003841, w: 6.07967959e-05}
        outSlope: {x: 0, y: 0, z: -.0601003841, w: 6.07967959e-05}
        tangentMode: 1821075353
      - time: .983333051
        value: {x: 0, y: 0, z: 1.4746216e-05, w: 1}
        inSlope: {x: 0, y: 0, z: -.021458922, w: 7.15256419e-06}
        outSlope: {x: 0, y: 0, z: -.021458922, w: 7.15256419e-06}
        tangentMode: 176
      - time: 1
        value: {x: 0, y: 0, z: 0, w: 1}
        inSlope: {x: 0, y: 0, z: -.000884757959, w: 0}
        outSlope: {x: 0, y: 0, z: -.000884757959, w: 0}
        tangentMode: 7008030
      m_PreInfinity: 2
      m_PostInfinity: 2
    path: 
  m_CompressedRotationCurves: []
  m_PositionCurves: []
  m_ScaleCurves: []
  m_FloatCurves: []
  m_PPtrCurves: []
  m_SampleRate: 60
  m_WrapMode: 0
  m_Bounds:
    m_Center: {x: 0, y: 0, z: 0}
    m_Extent: {x: 0, y: 0, z: 0}
  m_ClipBindingConstant:
    genericBindings: []
    pptrCurveMapping: []
  m_AnimationClipSettings:
    serializedVersion: 2
    m_StartTime: 0
    m_StopTime: 1
    m_OrientationOffsetY: 0
    m_Level: 0
    m_CycleOffset: 0
    m_LoopTime: 0
    m_LoopBlend: 0
    m_LoopBlendOrientation: 0
    m_LoopBlendPositionY: 0
    m_LoopBlendPositionXZ: 0
    m_KeepOriginalOrientation: 0
    m_KeepOriginalPositionY: 1
    m_KeepOriginalPositionXZ: 0
    m_HeightFromFeet: 0
    m_Mirror: 0
  m_EditorCurves:
  - curve:
      serializedVersion: 2
      m_Curve:
      - time: 0
        value: 0
        inSlope: 0
        outSlope: 0
        tangentMode: 0
      - time: .0166666675
        value: 0
        inSlope: 0
        outSlope: 0
        tangentMode: 0
      - time: .0333333351
        value: 0
        inSlope: 0
        outSlope: 0
        tangentMode: 0
      - time: .0500000045
        value: 0
        inSlope: 0
        outSlope: 0
        tangentMode: 0
      - time: .0666666701
        value: 0
        inSlope: 0
        outSlope: 0
        tangentMode: 0
      - time: .0833333358
        value: 0
        inSlope: 0
        outSlope: 0
        tangentMode: 0
      - time: .100000001
        value: 0
        inSlope: 0
        outSlope: 0
        tangentMode: 0
      - time: .116666667
        value: 0
        inSlope: 0
        outSlope: 0
        tangentMode: 0
      - time: .13333334
        value: 0
        inSlope: 0
        outSlope: 0
        tangentMode: 0
      - time: .150000006
        value: 0
        inSlope: 0
        outSlope: 0
        tangentMode: 0
      - time: .166666672
        value: 0
        inSlope: 0
        outSlope: 0
        tangentMode: 0
      - time: .183333337
        value: 0
        inSlope: 0
        outSlope: 0
        tangentMode: 0
      - time: .200000003
        value: 0
        inSlope: 0
        outSlope: 0
        tangentMode: 0
      - time: .216666669
        value: 0
        inSlope: 0
        outSlope: 0
        tangentMode: 0
      - time: .233333334
        value: 0
        inSlope: 0
        outSlope: 0
        tangentMode: 0
      - time: .25
        value: 0
        inSlope: 0
        outSlope: 0
        tangentMode: 0
      - time: .266666681
        value: 0
        inSlope: 0
        outSlope: 0
        tangentMode: 0
      - time: .283333361
        value: 0
        inSlope: 0
        outSlope: 0
        tangentMode: 0
      - time: .300000042
        value: 0
        inSlope: 0
        outSlope: 0
        tangentMode: 0
      - time: .316666722
        value: 0
        inSlope: 0
        outSlope: 0
        tangentMode: 0
      - time: .333333403
        value: 0
        inSlope: 0
        outSlope: 0
        tangentMode: 0
      - time: .350000083
        value: 0
        inSlope: 0
        outSlope: 0
        tangentMode: 0
      - time: .366666764
        value: 0
        inSlope: 0
        outSlope: 0
        tangentMode: 0
      - time: .383333445
        value: 0
        inSlope: 0
        outSlope: 0
        tangentMode: 0
      - time: .400000125
        value: 0
        inSlope: 0
        outSlope: 0
        tangentMode: 0
      - time: .416666806
        value: 0
        inSlope: 0
        outSlope: 0
        tangentMode: 0
      - time: .433333486
        value: 0
        inSlope: 0
        outSlope: 0
        tangentMode: 0
      - time: .450000167
        value: 0
        inSlope: 0
        outSlope: 0
        tangentMode: 0
      - time: .466666847
        value: 0
        inSlope: 0
        outSlope: 0
        tangentMode: 0
      - time: .483333528
        value: 0
        inSlope: 0
        outSlope: 0
        tangentMode: 0
      - time: .500000179
        value: 0
        inSlope: 0
        outSlope: 0
        tangentMode: 0
      - time: .51666683
        value: 0
        inSlope: 0
        outSlope: 0
        tangentMode: 0
      - time: .53333348
        value: 0
        inSlope: 0
        outSlope: 0
        tangentMode: 0
      - time: .550000131
        value: 0
        inSlope: 0
        outSlope: 0
        tangentMode: 0
      - time: .566666782
        value: 0
        inSlope: 0
        outSlope: 0
        tangentMode: 0
      - time: .583333433
        value: 0
        inSlope: 0
        outSlope: 0
        tangentMode: 0
      - time: .600000083
        value: 0
        inSlope: 0
        outSlope: 0
        tangentMode: 0
      - time: .616666734
        value: 0
        inSlope: 0
        outSlope: 0
        tangentMode: 0
      - time: .633333385
        value: 0
        inSlope: 0
        outSlope: 0
        tangentMode: 0
      - time: .650000036
        value: 0
        inSlope: 0
        outSlope: 0
        tangentMode: 0
      - time: .666666687
        value: 0
        inSlope: 0
        outSlope: 0
        tangentMode: 0
      - time: .683333337
        value: 0
        inSlope: 0
        outSlope: 0
        tangentMode: 0
      - time: .699999988
        value: 0
        inSlope: 0
        outSlope: 0
        tangentMode: 0
      - time: .716666639
        value: 0
        inSlope: 0
        outSlope: 0
        tangentMode: 0
      - time: .73333329
        value: 0
        inSlope: 0
        outSlope: 0
        tangentMode: 0
      - time: .74999994
        value: 0
        inSlope: 0
        outSlope: 0
        tangentMode: 0
      - time: .766666591
        value: 0
        inSlope: 0
        outSlope: 0
        tangentMode: 0
      - time: .783333242
        value: 0
        inSlope: 0
        outSlope: 0
        tangentMode: 0
      - time: .799999893
        value: 0
        inSlope: 0
        outSlope: 0
        tangentMode: 0
      - time: .816666543
        value: 0
        inSlope: 0
        outSlope: 0
        tangentMode: 0
      - time: .833333194
        value: 0
        inSlope: 0
        outSlope: 0
        tangentMode: 0
      - time: .849999845
        value: 0
        inSlope: 0
        outSlope: 0
        tangentMode: 0
      - time: .866666496
        value: 0
        inSlope: 0
        outSlope: 0
        tangentMode: 0
      - time: .883333147
        value: 0
        inSlope: 0
        outSlope: 0
        tangentMode: 0
      - time: .899999797
        value: 0
        inSlope: 0
        outSlope: 0
        tangentMode: 0
      - time: .916666448
        value: 0
        inSlope: 0
        outSlope: 0
        tangentMode: 0
      - time: .933333099
        value: 0
        inSlope: 0
        outSlope: 0
        tangentMode: 0
      - time: .94999975
        value: 0
        inSlope: 0
        outSlope: 0
        tangentMode: 0
      - time: .9666664
        value: 0
        inSlope: 0
        outSlope: 0
        tangentMode: 0
      - time: .983333051
        value: 0
        inSlope: 0
        outSlope: 0
        tangentMode: 0
      - time: 1
        value: 0
        inSlope: 0
        outSlope: 0
        tangentMode: 0
      m_PreInfinity: 2
      m_PostInfinity: 2
    attribute: m_LocalRotation.x
    path: 
    classID: 4
    script: {fileID: 0}
  - curve:
      serializedVersion: 2
      m_Curve:
      - time: 0
        value: 0
        inSlope: 0
        outSlope: 0
        tangentMode: 0
      - time: .0166666675
        value: 0
        inSlope: 0
        outSlope: 0
        tangentMode: 0
      - time: .0333333351
        value: 0
        inSlope: 0
        outSlope: 0
        tangentMode: 0
      - time: .0500000045
        value: 0
        inSlope: 0
        outSlope: 0
        tangentMode: 0
      - time: .0666666701
        value: 0
        inSlope: 0
        outSlope: 0
        tangentMode: 0
      - time: .0833333358
        value: 0
        inSlope: 0
        outSlope: 0
        tangentMode: 0
      - time: .100000001
        value: 0
        inSlope: 0
        outSlope: 0
        tangentMode: 0
      - time: .116666667
        value: 0
        inSlope: 0
        outSlope: 0
        tangentMode: 0
      - time: .13333334
        value: 0
        inSlope: 0
        outSlope: 0
        tangentMode: 0
      - time: .150000006
        value: 0
        inSlope: 0
        outSlope: 0
        tangentMode: 0
      - time: .166666672
        value: 0
        inSlope: 0
        outSlope: 0
        tangentMode: 0
      - time: .183333337
        value: 0
        inSlope: 0
        outSlope: 0
        tangentMode: 0
      - time: .200000003
        value: 0
        inSlope: 0
        outSlope: 0
        tangentMode: 0
      - time: .216666669
        value: 0
        inSlope: 0
        outSlope: 0
        tangentMode: 0
      - time: .233333334
        value: 0
        inSlope: 0
        outSlope: 0
        tangentMode: 0
      - time: .25
        value: 0
        inSlope: 0
        outSlope: 0
        tangentMode: 0
      - time: .266666681
        value: 0
        inSlope: 0
        outSlope: 0
        tangentMode: 0
      - time: .283333361
        value: 0
        inSlope: 0
        outSlope: 0
        tangentMode: 0
      - time: .300000042
        value: 0
        inSlope: 0
        outSlope: 0
        tangentMode: 0
      - time: .316666722
        value: 0
        inSlope: 0
        outSlope: 0
        tangentMode: 0
      - time: .333333403
        value: 0
        inSlope: 0
        outSlope: 0
        tangentMode: 0
      - time: .350000083
        value: 0
        inSlope: 0
        outSlope: 0
        tangentMode: 0
      - time: .366666764
        value: 0
        inSlope: 0
        outSlope: 0
        tangentMode: 0
      - time: .383333445
        value: 0
        inSlope: 0
        outSlope: 0
        tangentMode: 0
      - time: .400000125
        value: 0
        inSlope: 0
        outSlope: 0
        tangentMode: 0
      - time: .416666806
        value: 0
        inSlope: 0
        outSlope: 0
        tangentMode: 0
      - time: .433333486
        value: 0
        inSlope: 0
        outSlope: 0
        tangentMode: 0
      - time: .450000167
        value: 0
        inSlope: 0
        outSlope: 0
        tangentMode: 0
      - time: .466666847
        value: 0
        inSlope: 0
        outSlope: 0
        tangentMode: 0
      - time: .483333528
        value: 0
        inSlope: 0
        outSlope: 0
        tangentMode: 0
      - time: .500000179
        value: 0
        inSlope: 0
        outSlope: 0
        tangentMode: 0
      - time: .51666683
        value: 0
        inSlope: 0
        outSlope: 0
        tangentMode: 0
      - time: .53333348
        value: 0
        inSlope: 0
        outSlope: 0
        tangentMode: 0
      - time: .550000131
        value: 0
        inSlope: 0
        outSlope: 0
        tangentMode: 0
      - time: .566666782
        value: 0
        inSlope: 0
        outSlope: 0
        tangentMode: 0
      - time: .583333433
        value: 0
        inSlope: 0
        outSlope: 0
        tangentMode: 0
      - time: .600000083
        value: 0
        inSlope: 0
        outSlope: 0
        tangentMode: 0
      - time: .616666734
        value: 0
        inSlope: 0
        outSlope: 0
        tangentMode: 0
      - time: .633333385
        value: 0
        inSlope: 0
        outSlope: 0
        tangentMode: 0
      - time: .650000036
        value: 0
        inSlope: 0
        outSlope: 0
        tangentMode: 0
      - time: .666666687
        value: 0
        inSlope: 0
        outSlope: 0
        tangentMode: 0
      - time: .683333337
        value: 0
        inSlope: 0
        outSlope: 0
        tangentMode: 0
      - time: .699999988
        value: 0
        inSlope: 0
        outSlope: 0
        tangentMode: 0
      - time: .716666639
        value: 0
        inSlope: 0
        outSlope: 0
        tangentMode: 0
      - time: .73333329
        value: 0
        inSlope: 0
        outSlope: 0
        tangentMode: 0
      - time: .74999994
        value: 0
        inSlope: 0
        outSlope: 0
        tangentMode: 0
      - time: .766666591
        value: 0
        inSlope: 0
        outSlope: 0
        tangentMode: 0
      - time: .783333242
        value: 0
        inSlope: 0
        outSlope: 0
        tangentMode: 0
      - time: .799999893
        value: 0
        inSlope: 0
        outSlope: 0
        tangentMode: 0
      - time: .816666543
        value: 0
        inSlope: 0
        outSlope: 0
        tangentMode: 0
      - time: .833333194
        value: 0
        inSlope: 0
        outSlope: 0
        tangentMode: 0
      - time: .849999845
        value: 0
        inSlope: 0
        outSlope: 0
        tangentMode: 0
      - time: .866666496
        value: 0
        inSlope: 0
        outSlope: 0
        tangentMode: 0
      - time: .883333147
        value: 0
        inSlope: 0
        outSlope: 0
        tangentMode: 0
      - time: .899999797
        value: 0
        inSlope: 0
        outSlope: 0
        tangentMode: 0
      - time: .916666448
        value: 0
        inSlope: 0
        outSlope: 0
        tangentMode: 0
      - time: .933333099
        value: 0
        inSlope: 0
        outSlope: 0
        tangentMode: 0
      - time: .94999975
        value: 0
        inSlope: 0
        outSlope: 0
        tangentMode: 0
      - time: .9666664
        value: 0
        inSlope: 0
        outSlope: 0
        tangentMode: 0
      - time: .983333051
        value: 0
        inSlope: 0
        outSlope: 0
        tangentMode: 0
      - time: 1
        value: 0
        inSlope: 0
        outSlope: 0
        tangentMode: 0
      m_PreInfinity: 2
      m_PostInfinity: 2
    attribute: m_LocalRotation.y
    path: 
    classID: 4
    script: {fileID: 0}
  - curve:
      serializedVersion: 2
      m_Curve:
      - time: 0
        value: -.707106829
        inSlope: .0915634558
        outSlope: .0915634558
        tangentMode: 0
      - time: .0166666675
        value: -.705580771
        inSlope: .167357311
        outSlope: .167357311
        tangentMode: 0
      - time: .0333333351
        value: -.701528251
        inSlope: .315626234
        outSlope: .315626234
        tangentMode: 0
      - time: .0500000045
        value: -.695059896
        inSlope: .457799435
        outSlope: .457799435
        tangentMode: 0
      - time: .0666666701
        value: -.68626827
        inSlope: .594794214
        outSlope: .594794214
        tangentMode: 0
      - time: .0833333358
        value: -.675233424
        inSlope: .727205932
        outSlope: .727205932
        tangentMode: 0
      - time: .100000001
        value: -.662028074
        inSlope: .855306447
        outSlope: .855306447
        tangentMode: 0
      - time: .116666667
        value: -.646723211
        inSlope: .979079485
        outSlope: .979079485
        tangentMode: 0
      - time: .13333334
        value: -.629392087
        inSlope: 1.09825182
        outSlope: 1.09825182
        tangentMode: 0
      - time: .150000006
        value: -.610114813
        inSlope: 1.21232104
        outSlope: 1.21232104
        tangentMode: 0
      - time: .166666672
        value: -.58898139
        inSlope: 1.32059824
        outSlope: 1.32059824
        tangentMode: 0
      - time: .183333337
        value: -.566094875
        inSlope: 1.42224503
        outSlope: 1.42224503
        tangentMode: 0
      - time: .200000003
        value: -.541573226
        inSlope: 1.51631367
        outSlope: 1.51631367
        tangentMode: 0
      - time: .216666669
        value: -.51555109
        inSlope: 1.60178137
        outSlope: 1.60178137
        tangentMode: 0
      - time: .233333334
        value: -.488180518
        inSlope: 1.67760468
        outSlope: 1.67760468
        tangentMode: 0
      - time: .25
        value: -.459630936
        inSlope: 1.7427485
        outSlope: 1.7427485
        tangentMode: 0
      - time: .266666681
        value: -.430088878
        inSlope: 1.79621398
        outSlope: 1.79621398
        tangentMode: 0
      - time: .283333361
        value: -.399757087
        inSlope: 1.83708632
        outSlope: 1.83708632
        tangentMode: 0
      - time: .300000042
        value: -.368852615
        inSlope: 1.86454773
        outSlope: 1.86454773
        tangentMode: 0
      - time: .316666722
        value: -.337605447
        inSlope: 1.87790418
        outSlope: 1.87790418
        tangentMode: 0
      - time: .333333403
        value: -.306255758
        inSlope: 1.87659788
        outSlope: 1.87659788
        tangentMode: 0
      - time: .350000083
        value: -.27505213
        inSlope: 1.86021411
        outSlope: 1.86021411
        tangentMode: 0
      - time: .366666764
        value: -.244248569
        inSlope: 1.82849526
        outSlope: 1.82849526
        tangentMode: 0
      - time: .383333445
        value: -.214102238
        inSlope: 1.78131795
        outSlope: 1.78131795
        tangentMode: 0
      - time: .400000125
        value: -.184871256
        inSlope: 1.71869195
        outSlope: 1.71869195
        tangentMode: 0
      - time: .416666806
        value: -.156812459
        inSlope: 1.64074874
        outSlope: 1.64074874
        tangentMode: 0
      - time: .433333486
        value: -.130179584
        inSlope: 1.54770732
        outSlope: 1.54770732
        tangentMode: 0
      - time: .450000167
        value: -.105222173
        inSlope: 1.43986106
        outSlope: 1.43986106
        tangentMode: 0
      - time: .466666847
        value: -.0821841732
        inSlope: 1.31755614
        outSlope: 1.31755614
        tangentMode: 0
      - time: .483333528
        value: -.0613035969
        inSlope: 1.18114495
        outSlope: 1.18114495
        tangentMode: 0
      - time: .500000179
        value: -.0428126752
        inSlope: 1.03097653
        outSlope: 1.03097653
        tangentMode: 0
      - time: .51666683
        value: -.0269377474
        inSlope: .867366195
        outSlope: .867366195
        tangentMode: 0
      - time: .53333348
        value: -.0139004979
        inSlope: .714397669
        outSlope: .714397669
        tangentMode: 0
      - time: .550000131
        value: -.00312451576
        inSlope: .602018952
        outSlope: .602018952
        tangentMode: 0
      - time: .566666782
        value: .0061667813
        inSlope: .515419126
        outSlope: .515419126
        tangentMode: 0
      - time: .583333433
        value: .0140561042
        inSlope: .433799565
        outSlope: .433799565
        tangentMode: 0
      - time: .600000083
        value: .0206267536
        inSlope: .35718739
        outSlope: .35718739
        tangentMode: 0
      - time: .616666734
        value: .0259623397
        inSlope: .285596132
        outSlope: .285596132
        tangentMode: 0
      - time: .633333385
        value: .0301466156
        inSlope: .219030797
        outSlope: .219030797
        tangentMode: 0
      - time: .650000036
        value: .0332633592
        inSlope: .157490015
        outSlope: .157490015
        tangentMode: 0
      - time: .666666687
        value: .0353962779
        inSlope: .100970179
        outSlope: .100970179
        tangentMode: 0
      - time: .683333337
        value: .0366290286
        inSlope: .0494662374
        outSlope: .0494662374
        tangentMode: 0
      - time: .699999988
        value: .037045151
        inSlope: .00297300797
        outSlope: .00297300797
        tangentMode: 0
      - time: .716666639
        value: .0367281288
        inSlope: -.038513653
        outSlope: -.038513653
        tangentMode: 0
      - time: .73333329
        value: .0357613638
        inSlope: -.0749965385
        outSlope: -.0749965385
        tangentMode: 0
      - time: .74999994
        value: .0342282467
        inSlope: -.106476977
        outSlope: -.106476977
        tangentMode: 0
      - time: .766666591
        value: .0322121345
        inSlope: -.132955715
        outSlope: -.132955715
        tangentMode: 0
      - time: .783333242
        value: .0297963936
        inSlope: -.154431731
        outSlope: -.154431731
        tangentMode: 0
      - time: .799999893
        value: .0270644147
        inSlope: -.170903206
        outSlope: -.170903206
        tangentMode: 0
      - time: .816666543
        value: .0240996256
        inSlope: -.182369649
        outSlope: -.182369649
        tangentMode: 0
      - time: .833333194
        value: .020985432
        inSlope: -.188828021
        outSlope: -.188828021
        tangentMode: 0
      - time: .849999845
        value: .017805364
        inSlope: -.190275997
        outSlope: -.190275997
        tangentMode: 0
      - time: .866666496
        value: .0146429045
        inSlope: -.186714441
        outSlope: -.186714441
        tangentMode: 0
      - time: .883333147
        value: .011581555
        inSlope: -.178140536
        outSlope: -.178140536
        tangentMode: 0
      - time: .899999797
        value: .00870489236
        inSlope: -.16455555
        outSlope: -.16455555
        tangentMode: 0
      - time: .916666448
        value: .00609637564
        inSlope: -.145958126
        outSlope: -.145958126
        tangentMode: 0
      - time: .933333099
        value: .00383962621
        inSlope: -.122348674
        outSlope: -.122348674
        tangentMode: 0
      - time: .94999975
        value: .00201809034
        inSlope: -.0937299654
        outSlope: -.0937299654
        tangentMode: 0
      - time: .9666664
        value: .000715297007
        inSlope: -.0601003841
        outSlope: -.0601003841
        tangentMode: 0
      - time: .983333051
        value: 1.4746216e-05
        inSlope: -.021458922
        outSlope: -.021458922
        tangentMode: 0
      - time: 1
        value: 0
        inSlope: -.000884757959
        outSlope: -.000884757959
        tangentMode: 0
      m_PreInfinity: 2
      m_PostInfinity: 2
    attribute: m_LocalRotation.z
    path: 
    classID: 4
    script: {fileID: 0}
  - curve:
      serializedVersion: 2
      m_Curve:
      - time: 0
        value: .707106709
        inSlope: .0913667604
        outSlope: .0913667604
        tangentMode: 0
      - time: .0166666675
        value: .708629489
        inSlope: .166048393
        outSlope: .166048393
        tangentMode: 0
      - time: .0333333351
        value: .712641656
        inSlope: .309669942
        outSlope: .309669942
        tangentMode: 0
      - time: .0500000045
        value: .718951821
        inSlope: .441205502
        outSlope: .441205502
        tangentMode: 0
      - time: .0666666701
        value: .727348506
        inSlope: .559569657
        outSlope: .559569657
        tangentMode: 0
      - time: .0833333358
        value: .737604141
        inSlope: .663916528
        outSlope: .663916528
        tangentMode: 0
      - time: .100000001
        value: .749479055
        inSlope: .753620327
        outSlope: .753620327
        tangentMode: 0
      - time: .116666667
        value: .762724817
        inSlope: .828264236
        outSlope: .828264236
        tangentMode: 0
      - time: .13333334
        value: .777087867
        inSlope: .887646556
        outSlope: .887646556
        tangentMode: 0
      - time: .150000006
        value: .792313039
        inSlope: .93176192
        outSlope: .93176192
        tangentMode: 0
      - time: .166666672
        value: .808146596
        inSlope: .960812032
        outSlope: .960812032
        tangentMode: 0
      - time: .183333337
        value: .824340105
        inSlope: .97521013
        outSlope: .97521013
        tangentMode: 0
      - time: .200000003
        value: .840653598
        inSlope: .975562394
        outSlope: .975562394
        tangentMode: 0
      - time: .216666669
        value: .85685885
        inSlope: .962671697
        outSlope: .962671697
        tangentMode: 0
      - time: .233333334
        value: .872742653
        inSlope: .937535822
        outSlope: .937535822
        tangentMode: 0
      - time: .25
        value: .888110042
        inSlope: .901316643
        outSlope: .901316643
        tangentMode: 0
      - time: .266666681
        value: .902786553
        inSlope: .855332494
        outSlope: .855332494
        tangentMode: 0
      - time: .283333361
        value: .916621149
        inSlope: .801039219
        outSlope: .801039219
        tangentMode: 0
      - time: .300000042
        value: .929487884
        inSlope: .739995837
        outSlope: .739995837
        tangentMode: 0
      - time: .316666722
        value: .941287696
        inSlope: .673840046
        outSlope: .673840046
        tangentMode: 0
      - time: .333333403
        value: .951949239
        inSlope: .60424757
        outSlope: .60424757
        tangentMode: 0
      - time: .350000083
        value: .961429298
        inSlope: .532902598
        outSlope: .532902598
        tangentMode: 0
      - time: .366666764
        value: .969712675
        inSlope: .46145758
        outSlope: .46145758
        tangentMode: 0
      - time: .383333445
        value: .97681123
        inSlope: .391502053
        outSlope: .391502053
        tangentMode: 0
      - time: .400000125
        value: .982762754
        inSlope: .324514836
        outSlope: .324514836
        tangentMode: 0
      - time: .416666806
        value: .9876284
        inSlope: .261829883
        outSlope: .261829883
        tangentMode: 0
      - time: .433333486
        value: .991490424
        inSlope: .204609454
        outSlope: .204609454
        tangentMode: 0
      - time: .450000167
        value: .994448721
        inSlope: .153801322
        outSlope: .153801322
        tangentMode: 0
      - time: .466666847
        value: .996617138
        inSlope: .110113531
        outSlope: .110113531
        tangentMode: 0
      - time: .483333528
        value: .998119175
        inSlope: .0739788935
        outSlope: .0739788935
        tangentMode: 0
      - time: .500000179
        value: .999083102
        inSlope: .0455385894
        outSlope: .0455385894
        tangentMode: 0
      - time: .51666683
        value: .999637127
        inSlope: .0246083979
        outSlope: .0246083979
        tangentMode: 0
      - time: .53333348
        value: .999903381
        inSlope: .0107395751
        outSlope: .0107395751
        tangentMode: 0
      - time: .550000131
        value: .999995112
        inSlope: .00232815952
        outSlope: .00232815952
        tangentMode: 0
      - time: .566666782
        value: .999980986
        inSlope: -.00281632226
        outSlope: -.00281632226
        tangentMode: 0
      - time: .583333433
        value: .999901235
        inSlope: -.00581145845
        outSlope: -.00581145845
        tangentMode: 0
      - time: .600000083
        value: .999787271
        inSlope: -.00714898761
        outSlope: -.00714898761
        tangentMode: 0
      - time: .616666734
        value: .999662936
        inSlope: -.0072526997
        outSlope: -.0072526997
        tangentMode: 0
      - time: .633333385
        value: .999545515
        inSlope: -.00648916373
        outSlope: -.00648916373
        tangentMode: 0
      - time: .650000036
        value: .99944663
        inSlope: -.00516415108
        outSlope: -.00516415108
        tangentMode: 0
      - time: .666666687
        value: .999373376
        inSlope: -.00353157846
        outSlope: -.00353157846
        tangentMode: 0
      - time: .683333337
        value: .999328911
        inSlope: -.00179350551
        outSlope: -.00179350551
        tangentMode: 0
      - time: .699999988
        value: .999313593
        inSlope: -.000109076616
        outSlope: -.000109076616
        tangentMode: 0
      - time: .716666639
        value: .999325275
        inSlope: .00140369078
        outSlope: .00140369078
        tangentMode: 0
      - time: .73333329
        value: .999360383
        inSlope: .00266254204
        outSlope: .00266254204
        tangentMode: 0
      - time: .74999994
        value: .999414027
        inSlope: .00362098543
        outSlope: .00362098543
        tangentMode: 0
      - time: .766666591
        value: .999481082
        inSlope: .00425935164
        outSlope: .00425935164
        tangentMode: 0
      - time: .783333242
        value: .999556005
        inSlope: .00457764138
        outSlope: .00457764138
        tangentMode: 0
      - time: .799999893
        value: .99963367
        inSlope: .0046062516
        outSlope: .0046062516
        tangentMode: 0
      - time: .816666543
        value: .999709547
        inSlope: .00438273372
        outSlope: .00438273372
        tangentMode: 0
      - time: .833333194
        value: .999779761
        inSlope: .00395715609
        outSlope: .00395715609
        tangentMode: 0
      - time: .849999845
        value: .999841452
        inSlope: .00339031545
        outSlope: .00339031545
        tangentMode: 0
      - time: .866666496
        value: .999892771
        inSlope: .00274479669
        outSlope: .00274479669
        tangentMode: 0
      - time: .883333147
        value: .999932945
        inSlope: .00207960792
        outSlope: .00207960792
        tangentMode: 0
      - time: .899999797
        value: .999962091
        inSlope: .00145375868
        outSlope: .00145375868
        tangentMode: 0
      - time: .916666448
        value: .999981403
        inSlope: .000915528159
        outSlope: .000915528159
        tangentMode: 0
      - time: .933333099
        value: .999992609
        inSlope: .000497103203
        outSlope: .000497103203
        tangentMode: 0
      - time: .94999975
        value: .999997973
        inSlope: .000214576925
        outSlope: .000214576925
        tangentMode: 0
      - time: .9666664
        value: .999999762
        inSlope: 6.07967959e-05
        outSlope: 6.07967959e-05
        tangentMode: 0
      - time: .983333051
        value: 1
        inSlope: 7.15256419e-06
        outSlope: 7.15256419e-06
        tangentMode: 0
      - time: 1
        value: 1
        inSlope: 0
        outSlope: 0
        tangentMode: 0
      m_PreInfinity: 2
      m_PostInfinity: 2
    attribute: m_LocalRotation.w
    path: 
    classID: 4
    script: {fileID: 0}
  m_EulerEditorCurves:
  - curve:
      serializedVersion: 2
      m_Curve:
      - time: 0
        value: 0
        inSlope: 0
        outSlope: 0
        tangentMode: 10
      - time: 1
        value: 0
        inSlope: 0
        outSlope: 0
        tangentMode: 10
      m_PreInfinity: 2
      m_PostInfinity: 2
    attribute: localEulerAnglesBaked.x
    path: 
    classID: 4
    script: {fileID: 0}
  - curve:
      serializedVersion: 2
      m_Curve:
      - time: 0
        value: 0
        inSlope: 0
        outSlope: 0
        tangentMode: 10
      - time: 1
        value: 0
        inSlope: 0
        outSlope: 0
        tangentMode: 10
      m_PreInfinity: 2
      m_PostInfinity: 2
    attribute: localEulerAnglesBaked.y
    path: 
    classID: 4
    script: {fileID: 0}
  - curve:
      serializedVersion: 2
      m_Curve:
      - time: 0
        value: -90
        inSlope: 2.1411314
        outSlope: 2.1411314
        tangentMode: 0
      - time: .533333361
        value: -1.59294033
        inSlope: 79.3900833
        outSlope: 79.3900833
        tangentMode: 0
      - time: 1
        value: 0
        inSlope: 2.44698501
        outSlope: 2.44698501
        tangentMode: 0
      m_PreInfinity: 2
      m_PostInfinity: 2
    attribute: localEulerAnglesBaked.z
    path: 
    classID: 4
    script: {fileID: 0}
  m_Events: []
