%YAML 1.1
%TAG !u! tag:unity3d.com,2011:
--- !u!21 &2100000
Material:
  serializedVersion: 3
  m_ObjectHideFlags: 0
  m_PrefabParentObject: {fileID: 0}
  m_PrefabInternal: {fileID: 0}
  m_Name: MKDemoMat6View3
  m_Shader: {fileID: 4800000, guid: bea1129d02637fd489c76e5b9c373d21, type: 3}
  m_ShaderKeywords: []
  m_CustomRenderQueue: -1
  m_SavedProperties:
    serializedVersion: 2
    m_TexEnvs:
      data:
        first:
          name: _MainTex
        second:
          m_Texture: {fileID: 2800000, guid: d2bfdb919488ef040b6f7e30c6d08ebf, type: 3}
          m_Scale: {x: 1, y: 1}
          m_Offset: {x: 0, y: 0}
      data:
        first:
          name: _MKGlowTex
        second:
          m_Texture: {fileID: 2800000, guid: 6e4e6ecc78701fd43a948eb42241ab36, type: 3}
          m_Scale: {x: 1, y: 1}
          m_Offset: {x: 0, y: 0}
    m_Floats:
      data:
        first:
          name: _MKGlowPower
        second: 1
      data:
        first:
          name: _MKGlowTexStrength
        second: 10
      data:
        first:
          name: _MKGlowOffSet
        second: 0
      data:
        first:
          name: _RimPower
        second: 3
    m_Colors:
      data:
        first:
          name: _Color
        second: {r: 1, g: 1, b: 1, a: 1}
      data:
        first:
          name: _MKGlowColor
        second: {r: .0344827175, g: 1, b: 0, a: 1}
      data:
        first:
          name: _MKGlowTexColor
        second: {r: 1, g: 1, b: 1, a: 1}
      data:
        first:
          name: _RimColor
        second: {r: 0, g: 1, b: .131034613, a: 1}
